{
	"capabilities":
	[
		{
			"platform": "WINDOWS",
			"browserName": "firefox",
			"maxInstances": 5,
			"seleniumProtocol": "WebDriver"
        },
        {
			"platform": "WINDOWS",
			"browserName": "chrome",
			"maxInstances": 5,
			"seleniumProtocol": "WebDriver"
        },
         {
			"platform": "WINDOWS",
			"browserName": "internet explorer",
			"maxInstances": 5,
			"seleniumProtocol": "WebDriver"
        },
          {
			"platform": "WINDOWS",
			"browserName": "safari",
			"maxInstances": 5,
			"seleniumProtocol": "WebDriver"
        }
        
        

      ],
	"configuration":
	{
		"servlets": "com.aimmac23.node.servlet.VideoRecordingControlServlet" ,
	    "proxy": "com.aimmac23.hub.proxy.VideoProxy",
		"maxSession": 1,
		"port": 5555,
		"host": "192.168.6.19",
		"register": true,
		"registerCycle": 5000,
		"cleanUpCycle":2000,
		"hubPort": 4444,
		"hubHost": "192.168.5.63",
		"nodeTimeout":120,
		"nodePolling":2000,
		"Dwebdriver.chrome.driver=../Resources/Drivers/chromedriver.exe":"",
		"Dwebdriver.ie.driver=../Resources/Drivers/IEDriverServer.exe":""
	}
}